
[
    {
        "product_id": "1",
        "product_name": "Coke",
        "product_price": "20",
        "product_quantity": "02",
        "product_users": [
            "Rob",
            "Marley",
            "Bob"
        ]
    },
    {
        "product_id": "2",
        "product_name": "Pepsi",
        "product_price": "24",
        "product_quantity": "04",
        "product_users": [
            "Rob",
            "Marley",
            "Bob"
        ]
    },
    {
        "product_id": "3",
        "product_name": "Fanta",
        "product_price": "28",
        "product_quantity": "06",
        "product_users": [
            "Rob",
            "Marley",
            "Bob"
        ]
    },
    {
        "product_id": "4",
        "product_name": "Miranda",
        "product_price": "32",
        "product_quantity": "08",
        "product_users": [
            "Rob",
            "Marley",
            "Bob"
        ]
    },
    {
        "product_id": "5",
        "product_name": "Bovonto",
        "product_price": "36",
        "product_quantity": "10",
        "product_users": [
            "Rob",
            "Marley",
            "Bob"
        ]
    },
    {
        "product_id": "6",
        "product_name": "Wipro",
        "product_price": "40",
        "product_quantity": "12",
        "product_users": [
            "Rob",
            "Marley",
            "Bob"
        ]
    },
    {
        "product_id": "7",
        "product_name": "Liveo",
        "product_price": "44",
        "product_quantity": "14",
        "product_users": [
            "Rob",
            "Marley",
            "Bob"
        ]
    },
    {
        "product_id": "8",
        "product_name": "Likeo",
        "product_price": "48",
        "product_quantity": "16",
        "product_users": [
            "Rob",
            "Marley",
            "Bob"
        ]
    }
]